module gitlab.com/BerndCzech/postgresvantage

go 1.17

require (
	github.com/jackc/pgx/v4 v4.14.1
	github.com/kelseyhightower/envconfig v1.4.0
	github.com/pashagolub/pgxmock v1.4.3
	github.com/pkg/errors v0.9.1
	github.com/stretchr/testify v1.7.0
)

require (
	github.com/davecgh/go-spew v1.1.1 // indirect
	github.com/jackc/chunkreader/v2 v2.0.1 // indirect
	github.com/jackc/pgconn v1.10.1 // indirect
	github.com/jackc/pgio v1.0.0 // indirect
	github.com/jackc/pgpassfile v1.0.0 // indirect
	github.com/jackc/pgproto3/v2 v2.2.0 // indirect
	github.com/jackc/pgservicefile v0.0.0-20200714003250-2b9c44734f2b // indirect
	github.com/jackc/pgtype v1.9.1 // indirect
	github.com/jackc/puddle v1.2.0 // indirect
	github.com/pmezard/go-difflib v1.0.0 // indirect
	golang.org/x/crypto v0.0.0-20211215153901-e495a2d5b3d3 // indirect
	golang.org/x/text v0.3.7 // indirect
	gopkg.in/yaml.v3 v3.0.0-20200313102051-9f266ea9e77c // indirect
)
