{
    "Meta Data": {
        "1. Information": "Daily Prices (open, high, low, close) and Volumes",
        "2. Symbol": "MSFT",
        "3. Last Refreshed": "2020-11-13",
        "4. Output Size": "Compact",
        "5. Time Zone": "US/Eastern"
    },
    "Time Series (Daily)": {
        "2020-11-13": {
            "1. open": "216.3600",
            "2. high": "217.4200",
            "3. low": "214.1600",
            "4. close": "216.5100",
            "5. volume": "18630307"
        },
        "2020-11-12": {
            "1. open": "217.2100",
            "2. high": "219.1100",
            "3. low": "214.4600",
            "4. close": "215.4400",
            "5. volume": "21616115"
        },
        "2020-11-11": {
            "1. open": "212.3900",
            "2. high": "218.0400",
            "3. low": "212.2000",
            "4. close": "216.5500",
            "5. volume": "29440788"
        },
        "2020-11-10": {
            "1. open": "214.5000",
            "2. high": "216.5000",
            "3. low": "209.7200",
            "4. close": "211.0100",
            "5. volume": "44045120"
        },
        "2020-11-09": {
            "1. open": "224.4350",
            "2. high": "228.1200",
            "3. low": "217.8800",
            "4. close": "218.3900",
            "5. volume": "44394950"
        },
        "2020-11-06": {
            "1. open": "222.2600",
            "2. high": "224.3600",
            "3. low": "218.0300",
            "4. close": "223.7200",
            "5. volume": "25231895"
        },
        "2020-11-05": {
            "1. open": "222.0400",
            "2. high": "224.1200",
            "3. low": "221.1500",
            "4. close": "223.2900",
            "5. volume": "36080137"
        },
        "2020-11-04": {
            "1. open": "214.0200",
            "2. high": "218.3200",
            "3. low": "212.4185",
            "4. close": "216.3900",
            "5. volume": "42311777"
        },
        "2020-11-03": {
            "1. open": "203.8900",
            "2. high": "208.1200",
            "3. low": "203.1200",
            "4. close": "206.4300",
            "5. volume": "27512030"
        },
        "2020-11-02": {
            "1. open": "204.2900",
            "2. high": "205.2800",
            "3. low": "200.1200",
            "4. close": "202.3300",
            "5. volume": "30842163"
        },
        "2020-10-30": {
            "1. open": "203.5000",
            "2. high": "204.2900",
            "3. low": "199.6200",
            "4. close": "202.4700",
            "5. volume": "36980111"
        },
        "2020-10-29": {
            "1. open": "204.0700",
            "2. high": "207.3600",
            "3. low": "203.3700",
            "4. close": "204.7200",
            "5. volume": "31432563"
        },
        "2020-10-28": {
            "1. open": "207.6700",
            "2. high": "208.8400",
            "3. low": "202.1000",
            "4. close": "202.6800",
            "5. volume": "51195593"
        },
        "2020-10-27": {
            "1. open": "211.5900",
            "2. high": "214.6700",
            "3. low": "210.3290",
            "4. close": "213.2500",
            "5. volume": "36700325"
        },
        "2020-10-26": {
            "1. open": "213.8500",
            "2. high": "216.3399",
            "3. low": "208.1000",
            "4. close": "210.0800",
            "5. volume": "37111561"
        },
        "2020-10-23": {
            "1. open": "215.0300",
            "2. high": "216.2800",
            "3. low": "213.1600",
            "4. close": "216.2300",
            "5. volume": "18879608"
        },
        "2020-10-22": {
            "1. open": "213.9300",
            "2. high": "216.0550",
            "3. low": "211.7000",
            "4. close": "214.8900",
            "5. volume": "22351450"
        },
        "2020-10-21": {
            "1. open": "213.1200",
            "2. high": "216.9200",
            "3. low": "213.1200",
            "4. close": "214.8000",
            "5. volume": "22724906"
        },
        "2020-10-20": {
            "1. open": "215.8000",
            "2. high": "217.3700",
            "3. low": "213.0901",
            "4. close": "214.6500",
            "5. volume": "22753511"
        },
        "2020-10-19": {
            "1. open": "220.4150",
            "2. high": "222.3000",
            "3. low": "213.7200",
            "4. close": "214.2200",
            "5. volume": "27625841"
        },
        "2020-10-16": {
            "1. open": "220.1500",
            "2. high": "222.2900",
            "3. low": "219.3200",
            "4. close": "219.6600",
            "5. volume": "26057882"
        },
        "2020-10-15": {
            "1. open": "217.1000",
            "2. high": "220.3600",
            "3. low": "216.0100",
            "4. close": "219.6600",
            "5. volume": "22733064"
        },
        "2020-10-14": {
            "1. open": "223.0000",
            "2. high": "224.2200",
            "3. low": "219.1300",
            "4. close": "220.8600",
            "5. volume": "23451713"
        },
        "2020-10-13": {
            "1. open": "222.7200",
            "2. high": "225.2100",
            "3. low": "220.4300",
            "4. close": "222.8600",
            "5. volume": "28950843"
        },
        "2020-10-12": {
            "1. open": "218.7900",
            "2. high": "223.8600",
            "3. low": "216.8100",
            "4. close": "221.4000",
            "5. volume": "40461368"
        },
        "2020-10-09": {
            "1. open": "211.2300",
            "2. high": "215.8600",
            "3. low": "211.2300",
            "4. close": "215.8100",
            "5. volume": "26458047"
        },
        "2020-10-08": {
            "1. open": "210.5100",
            "2. high": "211.1900",
            "3. low": "208.3200",
            "4. close": "210.5800",
            "5. volume": "19925837"
        },
        "2020-10-07": {
            "1. open": "207.0600",
            "2. high": "210.1100",
            "3. low": "206.7200",
            "4. close": "209.8300",
            "5. volume": "25681054"
        },
        "2020-10-06": {
            "1. open": "208.8200",
            "2. high": "210.1800",
            "3. low": "204.8200",
            "4. close": "205.9100",
            "5. volume": "28554261"
        },
        "2020-10-05": {
            "1. open": "207.2200",
            "2. high": "210.4100",
            "3. low": "206.9800",
            "4. close": "210.3800",
            "5. volume": "21331561"
        },
        "2020-10-02": {
            "1. open": "208.0000",
            "2. high": "210.9900",
            "3. low": "205.5400",
            "4. close": "206.1900",
            "5. volume": "33154781"
        },
        "2020-10-01": {
            "1. open": "213.4900",
            "2. high": "213.9900",
            "3. low": "211.3200",
            "4. close": "212.4600",
            "5. volume": "27158418"
        },
        "2020-09-30": {
            "1. open": "207.7300",
            "2. high": "211.9800",
            "3. low": "206.5400",
            "4. close": "210.3300",
            "5. volume": "33829088"
        },
        "2020-09-29": {
            "1. open": "209.3500",
            "2. high": "210.0700",
            "3. low": "206.8100",
            "4. close": "207.2600",
            "5. volume": "24464472"
        },
        "2020-09-28": {
            "1. open": "210.8800",
            "2. high": "212.5700",
            "3. low": "208.0600",
            "4. close": "209.4400",
            "5. volume": "32004936"
        },
        "2020-09-25": {
            "1. open": "203.5500",
            "2. high": "209.0400",
            "3. low": "202.5400",
            "4. close": "207.8200",
            "5. volume": "29437312"
        },
        "2020-09-24": {
            "1. open": "199.8500",
            "2. high": "205.5700",
            "3. low": "199.2000",
            "4. close": "203.1900",
            "5. volume": "31202493"
        },
        "2020-09-23": {
            "1. open": "207.9000",
            "2. high": "208.1000",
            "3. low": "200.0300",
            "4. close": "200.5900",
            "5. volume": "30803780"
        },
        "2020-09-22": {
            "1. open": "205.0600",
            "2. high": "208.1000",
            "3. low": "202.0750",
            "4. close": "207.4200",
            "5. volume": "33517065"
        },
        "2020-09-21": {
            "1. open": "197.1900",
            "2. high": "202.7100",
            "3. low": "196.3800",
            "4. close": "202.5400",
            "5. volume": "39839657"
        },
        "2020-09-18": {
            "1. open": "202.8000",
            "2. high": "203.6500",
            "3. low": "196.2500",
            "4. close": "200.3900",
            "5. volume": "55225326"
        },
        "2020-09-17": {
            "1. open": "200.0500",
            "2. high": "204.3300",
            "3. low": "199.9600",
            "4. close": "202.9100",
            "5. volume": "34011257"
        },
        "2020-09-16": {
            "1. open": "210.6200",
            "2. high": "210.6500",
            "3. low": "204.6400",
            "4. close": "205.0500",
            "5. volume": "26372464"
        },
        "2020-09-15": {
            "1. open": "208.4200",
            "2. high": "209.7800",
            "3. low": "206.9300",
            "4. close": "208.7800",
            "5. volume": "21823942"
        },
        "2020-09-14": {
            "1. open": "204.2400",
            "2. high": "209.2000",
            "3. low": "204.0300",
            "4. close": "205.4100",
            "5. volume": "30375768"
        },
        "2020-09-11": {
            "1. open": "207.2000",
            "2. high": "208.6300",
            "3. low": "201.2400",
            "4. close": "204.0300",
            "5. volume": "33620073"
        },
        "2020-09-10": {
            "1. open": "213.4000",
            "2. high": "214.7400",
            "3. low": "204.1100",
            "4. close": "205.3700",
            "5. volume": "35461514"
        },
        "2020-09-09": {
            "1. open": "207.6000",
            "2. high": "214.8399",
            "3. low": "206.7000",
            "4. close": "211.2900",
            "5. volume": "45678986"
        },
        "2020-09-08": {
            "1. open": "206.5000",
            "2. high": "210.0300",
            "3. low": "202.2000",
            "4. close": "202.6600",
            "5. volume": "52924330"
        },
        "2020-09-04": {
            "1. open": "215.1000",
            "2. high": "218.3599",
            "3. low": "205.1900",
            "4. close": "214.2500",
            "5. volume": "59664072"
        },
        "2020-09-03": {
            "1. open": "229.2700",
            "2. high": "229.3100",
            "3. low": "214.9602",
            "4. close": "217.3000",
            "5. volume": "58400288"
        },
        "2020-09-02": {
            "1. open": "227.9700",
            "2. high": "232.8600",
            "3. low": "227.3500",
            "4. close": "231.6500",
            "5. volume": "34080839"
        },
        "2020-09-01": {
            "1. open": "225.5100",
            "2. high": "227.4500",
            "3. low": "224.4300",
            "4. close": "227.2700",
            "5. volume": "25791235"
        },
        "2020-08-31": {
            "1. open": "227.0000",
            "2. high": "228.7000",
            "3. low": "224.3100",
            "4. close": "225.5300",
            "5. volume": "28774156"
        },
        "2020-08-28": {
            "1. open": "228.1800",
            "2. high": "230.6440",
            "3. low": "226.5800",
            "4. close": "228.9100",
            "5. volume": "26292896"
        },
        "2020-08-27": {
            "1. open": "222.8900",
            "2. high": "231.1500",
            "3. low": "219.4000",
            "4. close": "226.5800",
            "5. volume": "57602195"
        },
        "2020-08-26": {
            "1. open": "217.8800",
            "2. high": "222.0900",
            "3. low": "217.3600",
            "4. close": "221.1500",
            "5. volume": "39600828"
        },
        "2020-08-25": {
            "1. open": "213.1000",
            "2. high": "216.6100",
            "3. low": "213.1000",
            "4. close": "216.4700",
            "5. volume": "23043696"
        },
        "2020-08-24": {
            "1. open": "214.7900",
            "2. high": "215.5200",
            "3. low": "212.4300",
            "4. close": "213.6900",
            "5. volume": "25460147"
        },
        "2020-08-21": {
            "1. open": "213.8600",
            "2. high": "216.2500",
            "3. low": "212.8500",
            "4. close": "213.0200",
            "5. volume": "36249319"
        },
        "2020-08-20": {
            "1. open": "209.5400",
            "2. high": "215.0000",
            "3. low": "208.9100",
            "4. close": "214.5800",
            "5. volume": "26981478"
        },
        "2020-08-19": {
            "1. open": "211.4900",
            "2. high": "212.1000",
            "3. low": "209.2500",
            "4. close": "209.7000",
            "5. volume": "27627561"
        },
        "2020-08-18": {
            "1. open": "210.5300",
            "2. high": "212.3600",
            "3. low": "209.2100",
            "4. close": "211.4900",
            "5. volume": "21336167"
        },
        "2020-08-17": {
            "1. open": "209.6000",
            "2. high": "211.1874",
            "3. low": "208.9150",
            "4. close": "210.2800",
            "5. volume": "20063496"
        },
        "2020-08-14": {
            "1. open": "208.7600",
            "2. high": "209.5900",
            "3. low": "207.5100",
            "4. close": "208.9000",
            "5. volume": "17958936"
        },
        "2020-08-13": {
            "1. open": "209.4400",
            "2. high": "211.3500",
            "3. low": "208.1500",
            "4. close": "208.7000",
            "5. volume": "22588870"
        },
        "2020-08-12": {
            "1. open": "205.2900",
            "2. high": "210.2800",
            "3. low": "204.7500",
            "4. close": "209.1900",
            "5. volume": "28041364"
        },
        "2020-08-11": {
            "1. open": "207.1550",
            "2. high": "207.6500",
            "3. low": "203.1400",
            "4. close": "203.3800",
            "5. volume": "36446459"
        },
        "2020-08-10": {
            "1. open": "211.6700",
            "2. high": "211.8800",
            "3. low": "206.3500",
            "4. close": "208.2500",
            "5. volume": "36716462"
        },
        "2020-08-07": {
            "1. open": "214.8500",
            "2. high": "215.7000",
            "3. low": "210.9300",
            "4. close": "212.4800",
            "5. volume": "27820421"
        },
        "2020-08-06": {
            "1. open": "212.3400",
            "2. high": "216.3705",
            "3. low": "211.5500",
            "4. close": "216.3500",
            "5. volume": "32656843"
        },
        "2020-08-05": {
            "1. open": "214.9000",
            "2. high": "215.0000",
            "3. low": "211.5700",
            "4. close": "212.9400",
            "5. volume": "28858621"
        },
        "2020-08-04": {
            "1. open": "214.1700",
            "2. high": "214.7700",
            "3. low": "210.3100",
            "4. close": "213.2900",
            "5. volume": "49280056"
        },
        "2020-08-03": {
            "1. open": "211.5200",
            "2. high": "217.6400",
            "3. low": "210.4400",
            "4. close": "216.5400",
            "5. volume": "78983009"
        },
        "2020-07-31": {
            "1. open": "204.4000",
            "2. high": "205.1000",
            "3. low": "199.0100",
            "4. close": "205.0100",
            "5. volume": "51247969"
        },
        "2020-07-30": {
            "1. open": "201.0000",
            "2. high": "204.4600",
            "3. low": "199.5700",
            "4. close": "203.9000",
            "5. volume": "25079596"
        },
        "2020-07-29": {
            "1. open": "202.5000",
            "2. high": "204.6500",
            "3. low": "202.0100",
            "4. close": "204.0600",
            "5. volume": "19632602"
        },
        "2020-07-28": {
            "1. open": "203.6100",
            "2. high": "204.7000",
            "3. low": "201.7400",
            "4. close": "202.0200",
            "5. volume": "23251388"
        },
        "2020-07-27": {
            "1. open": "201.4700",
            "2. high": "203.9700",
            "3. low": "200.8600",
            "4. close": "203.8500",
            "5. volume": "30160867"
        },
        "2020-07-24": {
            "1. open": "200.4200",
            "2. high": "202.8600",
            "3. low": "197.5100",
            "4. close": "201.3000",
            "5. volume": "39826989"
        },
        "2020-07-23": {
            "1. open": "207.1900",
            "2. high": "210.9200",
            "3. low": "202.1500",
            "4. close": "202.5400",
            "5. volume": "67457035"
        },
        "2020-07-22": {
            "1. open": "209.2000",
            "2. high": "212.3000",
            "3. low": "208.3900",
            "4. close": "211.7500",
            "5. volume": "49605692"
        },
        "2020-07-21": {
            "1. open": "213.6600",
            "2. high": "213.9400",
            "3. low": "208.0300",
            "4. close": "208.7500",
            "5. volume": "37702523"
        },
        "2020-07-20": {
            "1. open": "205.0000",
            "2. high": "212.3000",
            "3. low": "203.0100",
            "4. close": "211.6000",
            "5. volume": "36386080"
        },
        "2020-07-17": {
            "1. open": "204.4700",
            "2. high": "205.0400",
            "3. low": "201.3900",
            "4. close": "202.8800",
            "5. volume": "31636070"
        },
        "2020-07-16": {
            "1. open": "205.4000",
            "2. high": "205.7000",
            "3. low": "202.3100",
            "4. close": "203.9200",
            "5. volume": "29940718"
        },
        "2020-07-15": {
            "1. open": "209.5600",
            "2. high": "211.3300",
            "3. low": "205.0300",
            "4. close": "208.0400",
            "5. volume": "32248893"
        },
        "2020-07-14": {
            "1. open": "206.1300",
            "2. high": "208.8500",
            "3. low": "202.0300",
            "4. close": "208.3500",
            "5. volume": "37598121"
        },
        "2020-07-13": {
            "1. open": "214.4800",
            "2. high": "215.8000",
            "3. low": "206.5000",
            "4. close": "207.0700",
            "5. volume": "38135816"
        },
        "2020-07-10": {
            "1. open": "213.6200",
            "2. high": "214.0800",
            "3. low": "211.0800",
            "4. close": "213.6700",
            "5. volume": "26178663"
        },
        "2020-07-09": {
            "1. open": "216.3300",
            "2. high": "216.3800",
            "3. low": "211.4700",
            "4. close": "214.3200",
            "5. volume": "33122280"
        },
        "2020-07-08": {
            "1. open": "210.0700",
            "2. high": "213.2600",
            "3. low": "208.6900",
            "4. close": "212.8300",
            "5. volume": "33602226"
        },
        "2020-07-07": {
            "1. open": "210.4500",
            "2. high": "214.6700",
            "3. low": "207.9900",
            "4. close": "208.2500",
            "5. volume": "33600749"
        },
        "2020-07-06": {
            "1. open": "208.8300",
            "2. high": "211.1300",
            "3. low": "208.0900",
            "4. close": "210.7000",
            "5. volume": "32033747"
        },
        "2020-07-02": {
            "1. open": "205.6800",
            "2. high": "208.0200",
            "3. low": "205.0000",
            "4. close": "206.2600",
            "5. volume": "29322547"
        },
        "2020-07-01": {
            "1. open": "203.1400",
            "2. high": "206.3500",
            "3. low": "201.7700",
            "4. close": "204.7000",
            "5. volume": "32071431"
        },
        "2020-06-30": {
            "1. open": "197.8800",
            "2. high": "204.4000",
            "3. low": "197.7400",
            "4. close": "203.5100",
            "5. volume": "34310283"
        },
        "2020-06-29": {
            "1. open": "195.7800",
            "2. high": "198.5300",
            "3. low": "193.5500",
            "4. close": "198.4400",
            "5. volume": "26701586"
        },
        "2020-06-26": {
            "1. open": "199.7300",
            "2. high": "199.8900",
            "3. low": "194.8800",
            "4. close": "196.3300",
            "5. volume": "54675780"
        },
        "2020-06-25": {
            "1. open": "197.8000",
            "2. high": "200.6100",
            "3. low": "195.4700",
            "4. close": "200.3400",
            "5. volume": "27803933"
        }
    }
}